<svg width="38" height="40" viewBox="0 0 38 40" fill="none" xmlns="http://www.w3.org/2000/svg">
<path d="M18.6181 36.413C14.3651 40.666 7.44413 40.667 3.19012 36.413C-1.06388 32.159 -1.06287 25.238 3.19012 20.985C3.25113 20.923 3.31412 20.868 3.37812 20.812L3.54013 20.671C11.7501 14.336 27.2531 2.37203 28.3031 1.54903C30.4571 -0.536972 33.9061 -0.515972 36.0331 1.61103C37.8451 3.42403 38.1591 6.30803 36.7771 8.47103L19.9181 34.87C19.8381 34.975 19.1131 35.919 18.6181 36.413ZM5.34312 23.079C2.22812 26.194 2.22912 31.209 5.31212 34.292C8.39612 37.376 13.4141 37.376 16.4981 34.292C16.7521 34.037 17.2291 33.445 17.4981 33.097L34.2511 6.85703C34.8801 5.87203 34.7381 4.55903 33.9131 3.73403C32.9341 2.75503 31.3401 2.75503 30.3611 3.73403C30.2681 3.82603 30.2061 3.88903 5.41313 23.017L5.34713 23.076L5.34312 23.079Z" fill="#1D1D1B"/>
<path d="M10.9041 36.738C15.3439 36.738 18.9431 33.1388 18.9431 28.699C18.9431 24.2592 15.3439 20.66 10.9041 20.66C6.4643 20.66 2.86511 24.2592 2.86511 28.699C2.86511 33.1388 6.4643 36.738 10.9041 36.738Z" fill="white" stroke="black" stroke-width="0.9371" stroke-miterlimit="10"/>
<path d="M32.0601 8.31205C33.5657 8.31205 34.7861 7.09157 34.7861 5.58605C34.7861 4.08052 33.5657 2.86005 32.0601 2.86005C30.5546 2.86005 29.3341 4.08052 29.3341 5.58605C29.3341 7.09157 30.5546 8.31205 32.0601 8.31205Z" fill="white" stroke="black" stroke-width="0.8212" stroke-miterlimit="10"/>
<path d="M32.0601 6.94902C32.8129 6.94902 33.4231 6.33879 33.4231 5.58602C33.4231 4.83326 32.8129 4.22302 32.0601 4.22302C31.3073 4.22302 30.6971 4.83326 30.6971 5.58602C30.6971 6.33879 31.3073 6.94902 32.0601 6.94902Z" fill="black"/>
<path d="M10.9041 30.774C12.0501 30.774 12.9791 29.845 12.9791 28.699C12.9791 27.553 12.0501 26.624 10.9041 26.624C9.75814 26.624 8.82913 27.553 8.82913 28.699C8.82913 29.845 9.75814 30.774 10.9041 30.774Z" fill="black"/>
</svg>
