<svg width="27" height="27" viewBox="0 0 27 27" fill="none" xmlns="http://www.w3.org/2000/svg">
<path fill-rule="evenodd" clip-rule="evenodd" d="M0.00306003 12.5105C0.06406 12.0315 0.113061 11.5495 0.188061 11.0725C0.492061 9.09146 1.22806 7.27746 2.38106 5.64346C4.42306 2.75246 7.19307 0.955458 10.6531 0.221458C11.5421 0.0334577 12.4421 0.00745705 13.3481 0.000457047C15.1581 -0.014543 16.8931 0.339459 18.5291 1.09446C22.6211 2.98346 25.1781 6.13346 26.1521 10.5415C26.2881 11.1565 26.3461 11.7925 26.3931 12.4215C26.4321 12.9405 26.4171 13.4635 26.3991 13.9835C26.3371 15.7015 25.9211 17.3395 25.1651 18.8765C23.2431 22.7775 20.1581 25.2305 15.9011 26.1705C15.2861 26.3065 14.6481 26.3415 14.0211 26.4235C13.9501 26.4335 13.8791 26.4545 13.8091 26.4705C13.4161 26.4705 13.0251 26.4705 12.6321 26.4705C12.5531 26.4535 12.4751 26.4345 12.3951 26.4235C11.6651 26.3195 10.9171 26.2815 10.2061 26.1045C6.31006 25.1355 3.39706 22.8755 1.50106 19.3305C0.780061 17.9825 0.324062 16.5445 0.138062 15.0245C0.0920622 14.6615 0.0530633 14.2965 0.0110633 13.9335C0.00206327 13.9335 -0.00393997 12.5115 0.00306003 12.5105ZM25.5691 13.2355C25.6201 6.43346 20.0521 0.883459 13.3211 0.836459C6.43707 0.787459 0.914061 6.39946 0.863061 13.1105C0.811061 19.9885 6.40206 25.5665 13.1581 25.5975C20.0201 25.6295 25.6051 20.0065 25.5691 13.2355Z" fill="black"/>
<path fill-rule="evenodd" clip-rule="evenodd" d="M24.6891 13.1475C24.6521 19.6335 19.5561 24.6865 13.1981 24.6905C10.0051 24.6925 7.25606 23.4985 5.00906 21.2135C2.91906 19.0895 1.81606 16.4705 1.74706 13.5455C1.66906 10.2585 2.82106 7.33947 5.22206 5.00647C7.45206 2.83847 10.1541 1.71947 13.2531 1.74147C19.6641 1.78847 24.5891 6.86647 24.6891 13.1475ZM20.2781 13.2215C20.3171 9.39047 17.2141 6.23747 13.4301 6.13747C9.28406 6.02747 6.16707 9.42047 6.15507 13.1735C6.14107 17.0325 9.24606 20.2245 13.0761 20.2965C17.1691 20.3735 20.3281 17.0055 20.2781 13.2215ZM4.52006 7.16147C3.64006 8.44747 3.06706 9.81447 2.79506 11.3405C3.75906 10.8475 4.63606 10.9345 5.46206 11.5925C5.66806 10.5995 6.05407 9.70647 6.58507 8.85847C5.62507 8.76847 4.86006 8.23447 4.52006 7.16147ZM7.17306 4.50247C8.20006 4.82347 8.75506 5.50947 8.88106 6.57047C9.72906 6.01747 10.6241 5.65847 11.5981 5.43547C10.9401 4.60547 10.8481 3.73347 11.3481 2.77047C9.80807 3.05047 8.44906 3.62447 7.17306 4.50247ZM14.8421 5.44147C15.8291 5.65047 16.7201 6.03347 17.5651 6.56547C17.6931 5.49247 18.2551 4.82347 19.2691 4.50147C17.9881 3.62147 16.6301 3.04647 15.0911 2.77247C15.6001 3.73547 15.4951 4.59747 14.8421 5.44147ZM23.6501 15.0915C22.6851 15.5855 21.8081 15.4995 20.9801 14.8385C20.7751 15.8325 20.3871 16.7245 19.8601 17.5735C20.9351 17.6875 21.5911 18.2635 21.9221 19.2695C22.8011 17.9915 23.3691 16.6255 23.6501 15.0915ZM14.8611 20.9905C15.5201 22.0655 15.5311 22.1755 15.1301 23.6555C16.6351 23.3825 17.9961 22.8105 19.2721 21.9265C18.7801 21.7695 18.3841 21.5475 18.0791 21.1745C17.7731 20.8005 17.6231 20.3665 17.5631 19.8645C16.7131 20.4085 15.8211 20.7785 14.8611 20.9905ZM2.79006 15.0915C3.07706 16.6235 3.63806 17.9975 4.52306 19.2705C4.85206 18.2495 5.52206 17.6875 6.58606 17.5715C6.03906 16.7155 5.67106 15.8175 5.45606 14.8385C4.62106 15.5075 3.75006 15.5775 2.79006 15.0915ZM21.9201 7.15746C21.5921 8.17646 20.9291 8.74347 19.8551 8.86047C20.4011 9.71447 20.7681 10.6175 20.9881 11.5915C21.8331 10.9235 22.7031 10.8545 23.6491 11.3375C23.3741 9.81746 22.8051 8.45046 21.9201 7.15746ZM8.88306 19.8665C8.73206 20.9265 8.42706 21.2985 7.21306 21.9355C8.05306 22.6555 10.5861 23.6915 11.3241 23.6095C10.8361 22.6855 10.9511 21.8165 11.5951 20.9905C10.6091 20.7775 9.71806 20.4005 8.88306 19.8665ZM5.33306 19.7585C5.32506 20.4895 5.95006 21.1255 6.67506 21.1225C7.39306 21.1185 8.00407 20.5075 8.01507 19.7825C8.02607 19.0675 7.40706 18.4385 6.68606 18.4325C5.96606 18.4275 5.34106 19.0405 5.33306 19.7585ZM6.66106 7.99947C7.39206 8.00547 8.02307 7.37747 8.01607 6.65147C8.00907 5.93347 7.38806 5.31047 6.67506 5.30847C5.96206 5.30547 5.33506 5.93147 5.33206 6.64847C5.32906 7.36947 5.94406 7.99347 6.66106 7.99947ZM19.7571 7.99947C20.4791 8.00247 21.1001 7.39447 21.1101 6.67447C21.1201 5.94547 20.4941 5.31047 19.7671 5.31047C19.0531 5.31147 18.4361 5.92847 18.4281 6.65147C18.4201 7.36647 19.0401 7.99547 19.7571 7.99947ZM19.7841 18.4335C19.0511 18.4275 18.4211 19.0515 18.4261 19.7785C18.4311 20.4965 19.0461 21.1155 19.7641 21.1245C20.4701 21.1335 21.1061 20.5025 21.1101 19.7875C21.1141 19.0665 20.5001 18.4395 19.7841 18.4335ZM13.2211 5.26247C13.9741 5.26447 14.5451 4.69647 14.5461 3.94647C14.5471 3.20247 13.9781 2.62847 13.2581 2.60347C12.4971 2.57747 11.8781 3.24447 11.8921 3.91947C11.9071 4.69247 12.4551 5.26147 13.2211 5.26247ZM14.5461 22.4835C14.5441 21.7315 13.9721 21.1675 13.2111 21.1695C12.4581 21.1715 11.8951 21.7425 11.8961 22.5035C11.8981 23.2515 12.4771 23.8255 13.2311 23.8245C13.9781 23.8235 14.5471 23.2425 14.5461 22.4835ZM5.28506 13.2295C5.28606 12.4795 4.69106 11.8695 3.95706 11.8695C3.24606 11.8695 2.66006 12.4775 2.63106 13.1905C2.60806 13.7765 3.07206 14.5495 3.95506 14.5565C4.81506 14.5645 5.33206 13.7995 5.28506 13.2295ZM21.1571 13.1965C21.0951 13.7905 21.6161 14.5465 22.4841 14.5595C23.2121 14.5715 23.8031 13.9525 23.8031 13.2095C23.8041 12.4765 23.1961 11.8635 22.4721 11.8685C21.7601 11.8745 21.1581 12.4805 21.1571 13.1965Z" fill="black"/>
<path fill-rule="evenodd" clip-rule="evenodd" d="M13.2031 19.3875C9.72206 19.3555 7.01006 16.5705 7.06106 13.1365C7.11406 9.60046 9.95606 7.03046 13.2391 7.04746C16.7421 7.06546 19.4311 9.88246 19.3811 13.2955C19.3281 16.8125 16.5021 19.3915 13.2031 19.3875ZM18.5151 13.2215C18.5491 10.3785 16.2461 7.95746 13.3311 7.90346C10.2501 7.84546 7.92606 10.3675 7.91906 13.1975C7.91306 16.0485 10.1961 18.4785 13.1221 18.5295C16.1961 18.5825 18.5491 16.0615 18.5151 13.2215Z" fill="black"/>
</svg>
