<svg width="24" height="21" viewBox="0 0 24 21" fill="none" xmlns="http://www.w3.org/2000/svg">
<path d="M8.51473 8.88748C6.49123 8.88748 4.4833 8.88748 2.45768 8.88748C2.43363 9.31482 2.41099 9.72589 2.38764 10.1377C4.4267 10.1377 6.43109 10.1377 8.44185 10.1377C8.46662 9.71881 8.49067 9.31199 8.51473 8.88748ZM8.44327 10.9732C6.42119 10.9732 4.41113 10.9732 2.38551 10.9732C2.4124 11.3992 2.43787 11.8067 2.46405 12.2241C4.49179 12.2241 6.49689 12.2241 8.51473 12.2241C8.49067 11.8046 8.46732 11.3963 8.44327 10.9732ZM9.43804 4.71172C9.36445 4.71172 9.30503 4.71172 9.24489 4.71172C8.5402 4.71172 7.83622 4.71101 7.13224 4.71101C5.96272 4.71101 4.79248 4.7103 3.62296 4.71455C3.55999 4.71455 3.4574 4.74073 3.44113 4.78176C3.2876 5.17231 3.14822 5.56781 2.99822 5.98171C5.03304 5.98171 7.02894 5.98171 9.03051 5.98171C9.16423 5.56286 9.29795 5.14613 9.43804 4.71172ZM2.99893 15.1165C3.13548 15.5028 3.26708 15.8629 3.38948 16.2251C3.43335 16.3539 3.49985 16.3978 3.63994 16.3978C5.25096 16.3914 6.86126 16.3942 8.47228 16.3942C8.78924 16.3942 9.10621 16.3942 9.43591 16.3942C9.31634 16.0164 9.19253 15.6584 9.09206 15.2948C9.05385 15.1575 9.0015 15.1129 8.85858 15.1129C6.978 15.1179 5.09813 15.1157 3.21755 15.1157C3.15883 15.1165 3.09798 15.1165 2.99893 15.1165ZM3.83734 3.90374C3.9463 3.90374 4.02271 3.90374 4.09983 3.90374C4.72456 3.90374 5.3493 3.90374 5.97333 3.90303C7.19804 3.90303 8.42205 3.90303 9.64676 3.89949C9.70548 3.89949 9.79392 3.87968 9.81656 3.83935C10.0373 3.44668 10.246 3.04835 10.4646 2.64153C10.4314 2.63799 10.3967 2.63091 10.3621 2.63091C8.49421 2.6295 6.62707 2.62879 4.75994 2.63091C4.70404 2.63091 4.62622 2.64577 4.59721 2.68327C4.30713 3.0533 4.05242 3.44597 3.83734 3.90374ZM3.87271 17.2022C3.85786 17.2199 3.843 17.2383 3.82814 17.256C4.06304 17.6189 4.30005 17.9798 4.53 18.3456C4.59721 18.4531 4.68211 18.4814 4.80381 18.4807C6.64123 18.4772 8.47865 18.4786 10.3168 18.4772C10.3677 18.4772 10.4194 18.4701 10.4675 18.4665C10.2651 18.0916 10.0642 17.735 9.88023 17.3692C9.81656 17.2418 9.74722 17.1973 9.60359 17.198C7.78457 17.2036 5.96484 17.2015 4.14582 17.2015C4.05455 17.2022 3.96398 17.2022 3.87271 17.2022ZM8.82533 6.79606C8.75104 6.79606 8.68453 6.79606 8.61873 6.79606C7.48034 6.79536 6.34124 6.79465 5.20214 6.79465C4.455 6.79465 3.70786 6.79323 2.96143 6.79889C2.90271 6.7996 2.80012 6.83851 2.79234 6.8746C2.70602 7.2609 2.63597 7.65003 2.55603 8.06605C2.64871 8.06605 2.70743 8.06605 2.76687 8.06605C3.96115 8.06605 5.15473 8.06676 6.34902 8.06747C7.04734 8.06747 7.74495 8.06959 8.44327 8.06323C8.50553 8.06252 8.61449 8.01511 8.62227 7.97408C8.69797 7.5906 8.75741 7.20501 8.82533 6.79606ZM8.82745 14.3014C8.76519 13.9476 8.68948 13.608 8.64986 13.2635C8.62934 13.0838 8.57274 13.0335 8.39233 13.0342C6.50609 13.0413 4.62056 13.0392 2.73432 13.0399C2.68267 13.0399 2.63102 13.0491 2.56098 13.0548C2.63951 13.4821 2.71451 13.8903 2.79021 14.3014C4.8123 14.3014 6.81244 14.3014 8.82745 14.3014ZM12.0891 0.854339C12.0622 0.852924 12.0318 0.850803 12.0028 0.850803C10.5396 0.850096 9.07579 0.836651 7.61265 0.859999C7.2596 0.865659 6.89876 0.960467 6.55986 1.07013C6.12332 1.21093 5.75329 1.48191 5.39741 1.80383C5.44198 1.81656 5.45826 1.82505 5.47524 1.82505C7.31832 1.82505 9.1614 1.82576 11.0045 1.82222C11.0575 1.82222 11.1233 1.7918 11.1623 1.7543C11.4721 1.45998 11.7757 1.16069 12.0891 0.854339ZM12.099 20.2566C11.7948 19.9629 11.5061 19.6764 11.2075 19.4005C11.1439 19.3417 11.0448 19.2901 10.9606 19.2894C9.16069 19.2823 7.36006 19.283 5.56014 19.2823C5.51415 19.2823 5.46746 19.2894 5.38326 19.2965C6.05753 19.8795 6.77636 20.2566 7.6558 20.2566C8.99089 20.2566 10.3253 20.2566 11.6603 20.2566C11.8054 20.2566 11.9497 20.2566 12.099 20.2566Z" fill="white"/>
<path fill-rule="evenodd" clip-rule="evenodd" d="M8.51473 8.88751C8.48997 9.31202 8.46662 9.71884 8.44186 10.1377C6.4311 10.1377 4.4267 10.1377 2.38764 10.1377C2.41099 9.72592 2.43363 9.31485 2.45769 8.88751C4.4833 8.88751 6.49194 8.88751 8.51473 8.88751Z" fill="black"/>
<path fill-rule="evenodd" clip-rule="evenodd" d="M8.44327 10.9733C8.46732 11.3971 8.49067 11.8046 8.51473 12.2242C6.49689 12.2242 4.49108 12.2242 2.46405 12.2242C2.43787 11.8067 2.41169 11.3992 2.38551 10.9733C4.41113 10.9733 6.42048 10.9733 8.44327 10.9733Z" fill="black"/>
<path fill-rule="evenodd" clip-rule="evenodd" d="M9.43804 4.71169C9.29795 5.1461 9.16423 5.56283 9.02981 5.98168C7.02753 5.98168 5.03234 5.98168 2.99752 5.98168C3.14751 5.56778 3.28689 5.17158 3.44043 4.78173C3.4567 4.7407 3.55929 4.71452 3.62226 4.71452C4.79178 4.71027 5.96202 4.71098 7.13154 4.71098C7.83623 4.71098 8.54021 4.71169 9.24418 4.71169C9.30503 4.71169 9.36446 4.71169 9.43804 4.71169Z" fill="black"/>
<path fill-rule="evenodd" clip-rule="evenodd" d="M2.99893 15.1165C3.09799 15.1165 3.15813 15.1165 3.21826 15.1165C5.09884 15.1165 6.97871 15.1186 8.85929 15.1136C9.00221 15.1136 9.05456 15.1575 9.09277 15.2955C9.19324 15.6591 9.31635 16.0171 9.43662 16.395C9.10692 16.395 8.78925 16.395 8.47299 16.395C6.86197 16.395 5.25167 16.3921 3.64065 16.3985C3.49986 16.3985 3.43335 16.3546 3.39019 16.2259C3.26708 15.8629 3.13619 15.5028 2.99893 15.1165Z" fill="black"/>
<path fill-rule="evenodd" clip-rule="evenodd" d="M3.83734 3.90374C4.05242 3.44598 4.30713 3.05331 4.59721 2.68327C4.62693 2.64507 4.70475 2.63092 4.75994 2.63092C6.62707 2.62879 8.49421 2.6295 10.3621 2.63092C10.3967 2.63092 10.4314 2.63799 10.4646 2.64153C10.246 3.04835 10.0373 3.44739 9.81656 3.83936C9.79463 3.87968 9.70548 3.89949 9.64676 3.89949C8.42205 3.90303 7.19804 3.90303 5.97333 3.90303C5.3493 3.90374 4.72456 3.90374 4.09983 3.90374C4.02271 3.90374 3.9463 3.90374 3.83734 3.90374Z" fill="black"/>
<path fill-rule="evenodd" clip-rule="evenodd" d="M3.87271 17.2022C3.96398 17.2022 4.05455 17.2022 4.14582 17.2022C5.96484 17.2022 7.78457 17.2043 9.60359 17.1987C9.74793 17.198 9.81656 17.2425 9.88023 17.3699C10.0642 17.7357 10.2651 18.0923 10.4675 18.4673C10.4194 18.4708 10.3677 18.4779 10.3168 18.4779C8.47865 18.4793 6.64123 18.4779 4.80381 18.4814C4.68211 18.4821 4.59721 18.4538 4.53 18.3463C4.30005 17.9805 4.06304 17.6197 3.82814 17.2567C3.843 17.2383 3.85786 17.2206 3.87271 17.2022Z" fill="black"/>
<path fill-rule="evenodd" clip-rule="evenodd" d="M8.82533 6.79607C8.75741 7.2043 8.69798 7.59061 8.62157 7.97408C8.61308 8.01512 8.50483 8.06252 8.44257 8.06323C7.74425 8.0696 7.04664 8.06747 6.34832 8.06747C5.15403 8.06676 3.96045 8.06606 2.76616 8.06606C2.70673 8.06606 2.64801 8.06606 2.55532 8.06606C2.63527 7.65004 2.70602 7.2609 2.79163 6.8746C2.80012 6.83781 2.902 6.7996 2.96073 6.7989C3.70787 6.79324 4.455 6.79465 5.20143 6.79465C6.34053 6.79465 7.47964 6.79536 8.61803 6.79607C8.68454 6.79607 8.75034 6.79607 8.82533 6.79607Z" fill="black"/>
<path fill-rule="evenodd" clip-rule="evenodd" d="M8.82745 14.3013C6.81244 14.3013 4.8123 14.3013 2.79021 14.3013C2.71451 13.8903 2.63951 13.4828 2.56098 13.0547C2.63102 13.0483 2.68267 13.0398 2.73432 13.0398C4.62056 13.0391 6.50609 13.0413 8.39233 13.0342C8.57274 13.0335 8.62934 13.0837 8.64986 13.2634C8.68948 13.6073 8.76448 13.9476 8.82745 14.3013Z" fill="black"/>
<path fill-rule="evenodd" clip-rule="evenodd" d="M12.0891 0.85436C11.7764 1.16071 11.4722 1.46 11.1623 1.75432C11.1233 1.79182 11.0583 1.82224 11.0045 1.82224C9.1614 1.82578 7.31832 1.82507 5.47524 1.82507C5.45826 1.82507 5.44199 1.81588 5.39741 1.80385C5.75259 1.48193 6.12262 1.21095 6.55986 1.07015C6.89876 0.960488 7.2596 0.86568 7.61265 0.86002C9.07579 0.837379 10.5396 0.850117 12.0028 0.850825C12.0318 0.850825 12.0622 0.852945 12.0891 0.85436Z" fill="black"/>
<path fill-rule="evenodd" clip-rule="evenodd" d="M12.099 20.2566C11.9497 20.2566 11.8054 20.2566 11.6611 20.2566C10.326 20.2566 8.9916 20.2566 7.65651 20.2566C6.77707 20.2566 6.05824 19.8795 5.38397 19.2965C5.46746 19.2894 5.51416 19.2823 5.56085 19.2823C7.36077 19.2831 9.16069 19.2824 10.9613 19.2894C11.0448 19.2901 11.1446 19.3418 11.2082 19.4005C11.5061 19.6757 11.7955 19.963 12.099 20.2566Z" fill="black"/>
<path fill-rule="evenodd" clip-rule="evenodd" d="M11.7969 10.727C11.8146 8.2118 12.1669 5.97463 13.1016 3.85421C13.5409 2.85944 14.1013 1.94108 14.8909 1.17838C15.4739 0.615902 16.1389 0.191392 16.9497 0.0484741C17.8858 -0.11567 18.7228 0.146818 19.4798 0.688068C20.4611 1.38851 21.1213 2.35144 21.6484 3.41271C22.4323 4.99118 22.8709 6.67224 23.033 8.4191C23.1193 9.35373 23.1738 10.299 23.1398 11.2357C23.0613 13.4594 22.6339 15.6138 21.6335 17.6239C21.1694 18.5564 20.5899 19.4082 19.7819 20.0832C19.0723 20.6747 18.2735 21.0433 17.3276 20.9959C16.4396 20.9506 15.7024 20.5544 15.0522 19.9757C14.1798 19.1974 13.5798 18.226 13.1101 17.1704C12.3665 15.4999 11.9851 13.7403 11.8585 11.9227C11.8273 11.4536 11.8103 10.9838 11.7969 10.727ZM16.8429 5.13835C16.33 5.45461 15.9656 5.88548 15.667 6.37862C15.1555 7.2241 14.8774 8.15166 14.7423 9.12379C14.5159 10.7475 14.6503 12.3352 15.28 13.8606C15.5899 14.612 16.0208 15.2792 16.6908 15.7681C16.8026 15.8501 16.8762 15.8466 16.9809 15.7568C17.3785 15.4157 17.6884 15.0054 17.9396 14.5504C18.5162 13.5061 18.7999 12.3762 18.8791 11.1947C18.9888 9.55183 18.7454 7.97195 17.9686 6.49961C17.6919 5.97393 17.3403 5.50484 16.8429 5.13835ZM17.8978 16.1883C18.2098 16.1926 18.5204 16.1169 18.8133 15.9697C19.4416 15.6549 19.8718 15.1412 20.2149 14.5476C20.7767 13.5783 21.0491 12.5199 21.1474 11.4133C21.2847 9.86385 21.1128 8.35754 20.4604 6.92907C20.1222 6.1883 19.6687 5.53526 18.9513 5.10722C18.6237 4.91194 18.2678 4.81148 17.8483 4.81643C17.8914 4.86808 17.9091 4.89213 17.9296 4.91477C18.5211 5.53456 18.9258 6.26613 19.2131 7.06562C19.7536 8.57121 19.8796 10.1242 19.7147 11.7069C19.5973 12.8291 19.3263 13.913 18.7666 14.9021C18.5155 15.3464 18.195 15.7532 17.8978 16.1883Z" fill="black"/>
<path fill-rule="evenodd" clip-rule="evenodd" d="M14.8576 20.9591C13.9994 20.8205 13.323 20.4108 12.7322 19.8469C11.8217 18.9795 11.216 17.914 10.7505 16.7614C10.1201 15.2007 9.79038 13.5712 9.67081 11.8959C9.51657 9.72873 9.69345 7.59415 10.3118 5.50627C10.7625 3.98723 11.4049 2.56371 12.503 1.38782C13.1164 0.729827 13.836 0.239518 14.7373 0.0612236C14.7621 0.056271 14.7883 0.054147 14.8244 0.0491943C14.8145 0.0746649 14.8145 0.0965996 14.8031 0.10509C13.7284 0.945619 12.9919 2.04298 12.4146 3.25991C11.678 4.81361 11.2677 6.45859 11.0674 8.15946C10.8417 10.0797 10.8807 11.9956 11.2238 13.8995C11.5733 15.8403 12.1839 17.6833 13.3244 19.3184C13.7235 19.8929 14.1897 20.4066 14.7366 20.8452C14.7706 20.8728 14.7996 20.9054 14.8576 20.9591Z" fill="black"/>
<path fill-rule="evenodd" clip-rule="evenodd" d="M5.20568 0.0477905C4.87314 0.379616 4.52504 0.685971 4.22364 1.03478C3.17652 2.24321 2.52702 3.66461 2.06925 5.18082C1.39924 7.40242 1.20396 9.67638 1.37235 11.9829C1.51951 14.0057 1.95039 15.9641 2.83125 17.8057C3.40434 19.0022 4.14086 20.0762 5.20001 20.9025C5.20921 20.9096 5.21062 20.9259 5.22265 20.9542C4.76418 20.8827 4.34958 20.7242 3.96257 20.4908C3.04633 19.9368 2.39471 19.1345 1.85983 18.2288C1.04901 16.8541 0.579225 15.3549 0.295511 13.7941C-0.0384371 11.9546 -0.0872558 10.1044 0.138442 8.25074C0.374752 6.3079 0.875674 4.44218 1.88176 2.74201C2.4032 1.85974 3.0435 1.08077 3.92861 0.53244C4.32057 0.289762 4.74296 0.125617 5.20568 0.0477905Z" fill="black"/>
<path fill-rule="evenodd" clip-rule="evenodd" d="M17.9113 10.5304C17.9197 10.9407 17.8504 11.3575 17.6573 11.7431C17.5299 11.9949 17.3728 12.2433 17.0488 12.2461C16.7247 12.2482 16.5535 12.0091 16.4375 11.7508C16.0675 10.9287 16.0682 10.0952 16.4276 9.27099C16.5429 9.00638 16.7148 8.75592 17.0481 8.75875C17.3813 8.76087 17.5377 9.0177 17.665 9.27736C17.8547 9.66508 17.9212 10.0818 17.9113 10.5304Z" fill="black"/>
</svg>
